QGC WPL 110
0	1	0	16	0	5	0	0	45.5261200511614987	-123.110526502132416	0	1
1	0	3	115	335	5	0	0	45.4807874639524385	-123.204460144042969	15	1
2	0	3	16	7	5	0	0	45.480941675117819	-123.204658627510071	100	1
3	0	3	16	7	5	0	0	45.4806802681375828	-123.204865157604218	100	1
4	0	3	115	335	5	0	0	45.4807874639524385	-123.204460144042969	15	1
5	0	3	16	7	5	0	0	45.480411337388631	-123.204862475395203	100	1
6	0	3	16	7	5	0	0	45.4801405247079416	-123.204862475395203	100	1
7	0	3	115	335	5	0	0	45.4807874639524385	-123.204460144042969	15	1
8	0	3	16	7	5	0	0	45.4798697107255947	-123.204862475395203	100	1
9	0	3	16	7	5	0	0	45.4796026567738849	-123.204862475395203	100	1
10	0	3	115	335	5	0	0	45.4807874639524385	-123.204460144042969	15	1
11	0	3	16	7	5	0	0	45.4793167948032604	-123.204867839813232	100	1
12	0	3	16	7	5	0	0	45.4795988954415904	-123.204476237297058	100	1
13	0	3	16	7	5	0	0	45.4798734720398059	-123.204476237297058	100	1
14	0	3	115	335	5	0	0	45.4807874639524385	-123.204460144042969	15	1
15	0	3	16	7	5	0	0	45.4801405247079416	-123.204470872879028	100	1
16	0	3	16	7	5	0	0	45.4801330021148971	-123.204089999198914	100	1
17	0	3	115	335	5	0	0	45.4807874639524385	-123.204460144042969	15	1
18	0	3	16	7	5	0	0	45.4803962922738592	-123.204079270362854	100	1
19	0	3	16	7	5	0	0	45.480403814831746	-123.204470872879028	100	1
20	0	3	115	335	5	0	0	45.4807874639524385	-123.204460144042969	15	1
21	0	3	16	7	5	0	0	45.4806783875074316	-123.204465508460999	100	1
22	0	3	20	0	5	0	0	45.4807874639524385	-123.204460144042969	15	1
